{
  "project_info": {
    "project_number": "220805402955",
    "firebase_url": "https://mindoro-tourist.firebaseio.com",
    "project_id": "mindoro-tourist",
    "storage_bucket": "mindoro-tourist.appspot.com"
  },
  "client": [
    {
      "client_info": {
        "mobilesdk_app_id": "1:220805402955:android:73157e44d8dafc2a",
        "android_client_info": {
          "package_name": "com.elishanarida.mindorotouristapp"
        }
      },
      "oauth_client": [
        {
          "client_id": "220805402955-s19f10lhjvo3tp86452mtv51re6sipck.apps.googleusercontent.com",
          "client_type": 1,
          "android_info": {
            "package_name": "com.elishanarida.mindorotouristapp",
            "certificate_hash": "1c98fe3eba1156c37e1b072878734b5040d73ebf"
          }
        },
        {
          "client_id": "220805402955-oc6mfjb6p35duepl8619ifi5bh573mkn.apps.googleusercontent.com",
          "client_type": 3
        }
      ],
      "api_key": [
        {
          "current_key": "AIzaSyCHTIC1jdM5EKNrkaR3-4WG3tPfQhvuWd4"
        }
      ],
      "services": {
        "analytics_service": {
          "status": 1
        },
        "appinvite_service": {
          "status": 2,
          "other_platform_oauth_client": [
            {
              "client_id": "220805402955-oc6mfjb6p35duepl8619ifi5bh573mkn.apps.googleusercontent.com",
              "client_type": 3
            }
          ]
        },
        "ads_service": {
          "status": 2
        }
      }
    }
  ],
  "configuration_version": "1"
}